graph 666{
27  [Label = "27 (0.00)"]
24  [Label = "24 (0.00)"]
5  [Label = "5 (0.00)"]
12  [Label = "12 (0.00)"]
15  [Label = "15 (0.00)"]
1  [Label = "1 (0.00)"]
16  [Label = "16 (0.00)"]
3  [Label = "3 (0.00)"]
9  [Label = "9 (0.00)"]
22  [Label = "22 (0.00)"]
17  [Label = "17 (0.00)"]
14  [Label = "14 (0.00)"]
11  [Label = "11 (0.00)"]
20  [Label = "20 (0.00)"]
21  [Label = "21 (0.00)"]
25  [Label = "25 (0.00)"]
13  [Label = "13 (0.00)"]
0  [Label = "0 (0.00)"]
8  [Label = "8 (0.00)"]
7  [Label = "7 (0.00)"]
26  [Label = "26 (0.00)"]
2  [Label = "2 (0.00)"]
29  [Label = "29 (0.00)"]
19  [Label = "19 (0.00)"]
18  [Label = "18 (0.00)"]
28  [Label = "28 (0.00)"]
6  [Label = "6 (0.00)"]
10  [Label = "10 (0.00)"]
23  [Label = "23 (0.00)"]
4  [Label = "4 (0.00)"]

27--24  [Label = "1.33"]
5--12  [Label = "7.45"]
15--27  [Label = "28.17"]
1--16  [Label = "32.12"]
3--15  [Label = "35.16"]
9--16  [Label = "40.52"]
1--22  [Label = "51.63"]
17--14  [Label = "56.84"]
11--5  [Label = "58.49"]
1--20  [Label = "70.68"]
21--25  [Label = "71.49"]
27--13  [Label = "73.10"]
13--25  [Label = "74.17"]
9--0  [Label = "76.27"]
8--14  [Label = "89.04"]
7--26  [Label = "102.95"]
13--1  [Label = "107.84"]
2--7  [Label = "160.19"]
29--21  [Label = "160.35"]
9--19  [Label = "160.72"]
14--26  [Label = "177.15"]
9--14  [Label = "187.17"]
5--20  [Label = "206.22"]
18--15  [Label = "224.39"]
25--28  [Label = "247.08"]
6--16  [Label = "298.16"]
10--19  [Label = "410.40"]
17--23  [Label = "414.95"]
4--6  [Label = "455.41"]
}
