graph 666{
16  [Label = "16 (0.00)"]
1  [Label = "1 (0.00)"]
20  [Label = "20 (0.00)"]
18  [Label = "18 (0.00)"]
17  [Label = "17 (0.00)"]
6  [Label = "6 (0.00)"]
4  [Label = "4 (0.00)"]
28  [Label = "28 (0.00)"]
8  [Label = "8 (0.00)"]
7  [Label = "7 (0.00)"]
27  [Label = "27 (0.00)"]
12  [Label = "12 (0.00)"]
5  [Label = "5 (0.00)"]
2  [Label = "2 (0.00)"]
0  [Label = "0 (0.00)"]
26  [Label = "26 (0.00)"]
21  [Label = "21 (0.00)"]
23  [Label = "23 (0.00)"]
13  [Label = "13 (0.00)"]
19  [Label = "19 (0.00)"]
24  [Label = "24 (0.00)"]
25  [Label = "25 (0.00)"]
9  [Label = "9 (0.00)"]
15  [Label = "15 (0.00)"]
22  [Label = "22 (0.00)"]
10  [Label = "10 (0.00)"]
29  [Label = "29 (0.00)"]
14  [Label = "14 (0.00)"]
3  [Label = "3 (0.00)"]
11  [Label = "11 (0.00)"]

16--1  [Label = "3.84"]
20--16  [Label = "4.18"]
18--17  [Label = "8.95"]
6--4  [Label = "10.91"]
28--16  [Label = "18.90"]
8--7  [Label = "24.35"]
28--27  [Label = "28.53"]
12--4  [Label = "29.34"]
5--2  [Label = "31.99"]
8--0  [Label = "36.62"]
6--5  [Label = "38.99"]
26--21  [Label = "49.12"]
23--17  [Label = "50.20"]
7--2  [Label = "51.72"]
13--7  [Label = "53.45"]
19--8  [Label = "63.51"]
24--18  [Label = "64.80"]
25--7  [Label = "72.54"]
17--7  [Label = "73.54"]
27--4  [Label = "73.87"]
18--9  [Label = "74.03"]
26--5  [Label = "80.80"]
15--6  [Label = "81.56"]
22--6  [Label = "85.12"]
13--10  [Label = "88.34"]
29--28  [Label = "90.37"]
14--3  [Label = "93.71"]
11--7  [Label = "93.75"]
25--14  [Label = "96.52"]
}
