graph 666{
0  [Label = "0 (0.00)"]
1  [Label = "1 (0.00)"]
2  [Label = "2 (0.00)"]
3  [Label = "3 (0.00)"]
4  [Label = "4 (0.00)"]
5  [Label = "5 (0.00)"]
6  [Label = "6 (0.00)"]
7  [Label = "7 (0.00)"]
8  [Label = "8 (0.00)"]
9  [Label = "9 (0.00)"]
10  [Label = "10 (0.00)"]
11  [Label = "11 (0.00)"]
12  [Label = "12 (0.00)"]
13  [Label = "13 (0.00)"]
14  [Label = "14 (0.00)"]
15  [Label = "15 (0.00)"]
16  [Label = "16 (0.00)"]
17  [Label = "17 (0.00)"]
18  [Label = "18 (0.00)"]
19  [Label = "19 (0.00)"]
20  [Label = "20 (0.00)"]
21  [Label = "21 (0.00)"]
22  [Label = "22 (0.00)"]
23  [Label = "23 (0.00)"]
24  [Label = "24 (0.00)"]
25  [Label = "25 (0.00)"]
26  [Label = "26 (0.00)"]
27  [Label = "27 (0.00)"]
28  [Label = "28 (0.00)"]
29  [Label = "29 (0.00)"]
30  [Label = "30 (0.00)"]
31  [Label = "31 (0.00)"]
32  [Label = "32 (0.00)"]
33  [Label = "33 (0.00)"]
34  [Label = "34 (0.00)"]
35  [Label = "35 (0.00)"]
36  [Label = "36 (0.00)"]
37  [Label = "37 (0.00)"]
38  [Label = "38 (0.00)"]
39  [Label = "39 (0.00)"]
40  [Label = "40 (0.00)"]
41  [Label = "41 (0.00)"]
42  [Label = "42 (0.00)"]
43  [Label = "43 (0.00)"]
44  [Label = "44 (0.00)"]
45  [Label = "45 (0.00)"]
46  [Label = "46 (0.00)"]
47  [Label = "47 (0.00)"]
48  [Label = "48 (0.00)"]
49  [Label = "49 (0.00)"]
50  [Label = "50 (0.00)"]
51  [Label = "51 (0.00)"]
52  [Label = "52 (0.00)"]
53  [Label = "53 (0.00)"]
54  [Label = "54 (0.00)"]
55  [Label = "55 (0.00)"]
56  [Label = "56 (0.00)"]
57  [Label = "57 (0.00)"]
58  [Label = "58 (0.00)"]
59  [Label = "59 (0.00)"]
60  [Label = "60 (0.00)"]
61  [Label = "61 (0.00)"]
62  [Label = "62 (0.00)"]
63  [Label = "63 (0.00)"]
64  [Label = "64 (0.00)"]
65  [Label = "65 (0.00)"]
66  [Label = "66 (0.00)"]
67  [Label = "67 (0.00)"]
68  [Label = "68 (0.00)"]
69  [Label = "69 (0.00)"]
70  [Label = "70 (0.00)"]
71  [Label = "71 (0.00)"]
72  [Label = "72 (0.00)"]
73  [Label = "73 (0.00)"]
74  [Label = "74 (0.00)"]
75  [Label = "75 (0.00)"]
76  [Label = "76 (0.00)"]
77  [Label = "77 (0.00)"]
78  [Label = "78 (0.00)"]
79  [Label = "79 (0.00)"]
80  [Label = "80 (0.00)"]
81  [Label = "81 (0.00)"]
82  [Label = "82 (0.00)"]
83  [Label = "83 (0.00)"]
84  [Label = "84 (0.00)"]
85  [Label = "85 (0.00)"]
86  [Label = "86 (0.00)"]
87  [Label = "87 (0.00)"]
88  [Label = "88 (0.00)"]
89  [Label = "89 (0.00)"]
90  [Label = "90 (0.00)"]
91  [Label = "91 (0.00)"]
92  [Label = "92 (0.00)"]
93  [Label = "93 (0.00)"]
94  [Label = "94 (0.00)"]
95  [Label = "95 (0.00)"]
96  [Label = "96 (0.00)"]
97  [Label = "97 (0.00)"]
98  [Label = "98 (0.00)"]
99  [Label = "99 (0.00)"]
100  [Label = "100 (0.00)"]
101  [Label = "101 (0.00)"]
102  [Label = "102 (0.00)"]
103  [Label = "103 (0.00)"]
104  [Label = "104 (0.00)"]
105  [Label = "105 (0.00)"]
106  [Label = "106 (0.00)"]
107  [Label = "107 (0.00)"]
108  [Label = "108 (0.00)"]
109  [Label = "109 (0.00)"]
110  [Label = "110 (0.00)"]
111  [Label = "111 (0.00)"]
112  [Label = "112 (0.00)"]
113  [Label = "113 (0.00)"]
114  [Label = "114 (0.00)"]
115  [Label = "115 (0.00)"]
116  [Label = "116 (0.00)"]
117  [Label = "117 (0.00)"]
118  [Label = "118 (0.00)"]
119  [Label = "119 (0.00)"]
120  [Label = "120 (0.00)"]
121  [Label = "121 (0.00)"]
122  [Label = "122 (0.00)"]
123  [Label = "123 (0.00)"]
124  [Label = "124 (0.00)"]
125  [Label = "125 (0.00)"]
126  [Label = "126 (0.00)"]
127  [Label = "127 (0.00)"]
128  [Label = "128 (0.00)"]
129  [Label = "129 (0.00)"]
130  [Label = "130 (0.00)"]
131  [Label = "131 (0.00)"]
132  [Label = "132 (0.00)"]
133  [Label = "133 (0.00)"]
134  [Label = "134 (0.00)"]
135  [Label = "135 (0.00)"]
136  [Label = "136 (0.00)"]
137  [Label = "137 (0.00)"]
138  [Label = "138 (0.00)"]
139  [Label = "139 (0.00)"]
140  [Label = "140 (0.00)"]
141  [Label = "141 (0.00)"]
142  [Label = "142 (0.00)"]
143  [Label = "143 (0.00)"]
144  [Label = "144 (0.00)"]
145  [Label = "145 (0.00)"]
146  [Label = "146 (0.00)"]
147  [Label = "147 (0.00)"]
148  [Label = "148 (0.00)"]
149  [Label = "149 (0.00)"]
150  [Label = "150 (0.00)"]
151  [Label = "151 (0.00)"]
152  [Label = "152 (0.00)"]
153  [Label = "153 (0.00)"]
154  [Label = "154 (0.00)"]
155  [Label = "155 (0.00)"]
156  [Label = "156 (0.00)"]
157  [Label = "157 (0.00)"]
158  [Label = "158 (0.00)"]
159  [Label = "159 (0.00)"]
160  [Label = "160 (0.00)"]
161  [Label = "161 (0.00)"]
162  [Label = "162 (0.00)"]
163  [Label = "163 (0.00)"]
164  [Label = "164 (0.00)"]
165  [Label = "165 (0.00)"]
166  [Label = "166 (0.00)"]
167  [Label = "167 (0.00)"]
168  [Label = "168 (0.00)"]
169  [Label = "169 (0.00)"]
170  [Label = "170 (0.00)"]
171  [Label = "171 (0.00)"]
172  [Label = "172 (0.00)"]
173  [Label = "173 (0.00)"]
174  [Label = "174 (0.00)"]
175  [Label = "175 (0.00)"]
176  [Label = "176 (0.00)"]
177  [Label = "177 (0.00)"]
178  [Label = "178 (0.00)"]
179  [Label = "179 (0.00)"]
180  [Label = "180 (0.00)"]
181  [Label = "181 (0.00)"]
182  [Label = "182 (0.00)"]
183  [Label = "183 (0.00)"]
184  [Label = "184 (0.00)"]
185  [Label = "185 (0.00)"]
186  [Label = "186 (0.00)"]
187  [Label = "187 (0.00)"]
188  [Label = "188 (0.00)"]
189  [Label = "189 (0.00)"]
190  [Label = "190 (0.00)"]
191  [Label = "191 (0.00)"]
192  [Label = "192 (0.00)"]
193  [Label = "193 (0.00)"]
194  [Label = "194 (0.00)"]
195  [Label = "195 (0.00)"]
196  [Label = "196 (0.00)"]
197  [Label = "197 (0.00)"]
198  [Label = "198 (0.00)"]
199  [Label = "199 (0.00)"]
200  [Label = "200 (0.00)"]
201  [Label = "201 (0.00)"]
202  [Label = "202 (0.00)"]
203  [Label = "203 (0.00)"]
204  [Label = "204 (0.00)"]
205  [Label = "205 (0.00)"]
206  [Label = "206 (0.00)"]
207  [Label = "207 (0.00)"]
208  [Label = "208 (0.00)"]
209  [Label = "209 (0.00)"]
210  [Label = "210 (0.00)"]
211  [Label = "211 (0.00)"]
212  [Label = "212 (0.00)"]
213  [Label = "213 (0.00)"]
214  [Label = "214 (0.00)"]
215  [Label = "215 (0.00)"]
216  [Label = "216 (0.00)"]
217  [Label = "217 (0.00)"]
218  [Label = "218 (0.00)"]
219  [Label = "219 (0.00)"]
220  [Label = "220 (0.00)"]
221  [Label = "221 (0.00)"]
222  [Label = "222 (0.00)"]
223  [Label = "223 (0.00)"]
224  [Label = "224 (0.00)"]
225  [Label = "225 (0.00)"]
226  [Label = "226 (0.00)"]
227  [Label = "227 (0.00)"]
228  [Label = "228 (0.00)"]
229  [Label = "229 (0.00)"]
230  [Label = "230 (0.00)"]
231  [Label = "231 (0.00)"]
232  [Label = "232 (0.00)"]
233  [Label = "233 (0.00)"]
234  [Label = "234 (0.00)"]
235  [Label = "235 (0.00)"]
236  [Label = "236 (0.00)"]
237  [Label = "237 (0.00)"]
238  [Label = "238 (0.00)"]
239  [Label = "239 (0.00)"]
240  [Label = "240 (0.00)"]
241  [Label = "241 (0.00)"]
242  [Label = "242 (0.00)"]
243  [Label = "243 (0.00)"]
244  [Label = "244 (0.00)"]
245  [Label = "245 (0.00)"]
246  [Label = "246 (0.00)"]
247  [Label = "247 (0.00)"]
248  [Label = "248 (0.00)"]
249  [Label = "249 (0.00)"]
250  [Label = "250 (0.00)"]
251  [Label = "251 (0.00)"]
252  [Label = "252 (0.00)"]
253  [Label = "253 (0.00)"]
254  [Label = "254 (0.00)"]
255  [Label = "255 (0.00)"]
256  [Label = "256 (0.00)"]
257  [Label = "257 (0.00)"]
258  [Label = "258 (0.00)"]
259  [Label = "259 (0.00)"]
260  [Label = "260 (0.00)"]
261  [Label = "261 (0.00)"]
262  [Label = "262 (0.00)"]
263  [Label = "263 (0.00)"]
264  [Label = "264 (0.00)"]
265  [Label = "265 (0.00)"]
266  [Label = "266 (0.00)"]
267  [Label = "267 (0.00)"]
268  [Label = "268 (0.00)"]
269  [Label = "269 (0.00)"]
270  [Label = "270 (0.00)"]
271  [Label = "271 (0.00)"]
272  [Label = "272 (0.00)"]
273  [Label = "273 (0.00)"]
274  [Label = "274 (0.00)"]
275  [Label = "275 (0.00)"]
276  [Label = "276 (0.00)"]
277  [Label = "277 (0.00)"]
278  [Label = "278 (0.00)"]
279  [Label = "279 (0.00)"]
280  [Label = "280 (0.00)"]
281  [Label = "281 (0.00)"]
282  [Label = "282 (0.00)"]
283  [Label = "283 (0.00)"]
284  [Label = "284 (0.00)"]
285  [Label = "285 (0.00)"]
286  [Label = "286 (0.00)"]
287  [Label = "287 (0.00)"]
288  [Label = "288 (0.00)"]
289  [Label = "289 (0.00)"]
290  [Label = "290 (0.00)"]
291  [Label = "291 (0.00)"]
292  [Label = "292 (0.00)"]
293  [Label = "293 (0.00)"]
294  [Label = "294 (0.00)"]
295  [Label = "295 (0.00)"]
296  [Label = "296 (0.00)"]
297  [Label = "297 (0.00)"]
298  [Label = "298 (0.00)"]
299  [Label = "299 (0.00)"]
300  [Label = "300 (0.00)"]
301  [Label = "301 (0.00)"]
302  [Label = "302 (0.00)"]
303  [Label = "303 (0.00)"]
304  [Label = "304 (0.00)"]
305  [Label = "305 (0.00)"]
306  [Label = "306 (0.00)"]
307  [Label = "307 (0.00)"]
308  [Label = "308 (0.00)"]
309  [Label = "309 (0.00)"]
310  [Label = "310 (0.00)"]
311  [Label = "311 (0.00)"]
312  [Label = "312 (0.00)"]
313  [Label = "313 (0.00)"]
314  [Label = "314 (0.00)"]
315  [Label = "315 (0.00)"]
316  [Label = "316 (0.00)"]
317  [Label = "317 (0.00)"]
318  [Label = "318 (0.00)"]
319  [Label = "319 (0.00)"]
320  [Label = "320 (0.00)"]
321  [Label = "321 (0.00)"]
322  [Label = "322 (0.00)"]
323  [Label = "323 (0.00)"]
324  [Label = "324 (0.00)"]
325  [Label = "325 (0.00)"]
326  [Label = "326 (0.00)"]
327  [Label = "327 (0.00)"]
328  [Label = "328 (0.00)"]
329  [Label = "329 (0.00)"]
330  [Label = "330 (0.00)"]
331  [Label = "331 (0.00)"]
332  [Label = "332 (0.00)"]
333  [Label = "333 (0.00)"]
334  [Label = "334 (0.00)"]
335  [Label = "335 (0.00)"]
336  [Label = "336 (0.00)"]
337  [Label = "337 (0.00)"]
338  [Label = "338 (0.00)"]
339  [Label = "339 (0.00)"]
340  [Label = "340 (0.00)"]
341  [Label = "341 (0.00)"]
342  [Label = "342 (0.00)"]
343  [Label = "343 (0.00)"]
344  [Label = "344 (0.00)"]
345  [Label = "345 (0.00)"]
346  [Label = "346 (0.00)"]
347  [Label = "347 (0.00)"]
348  [Label = "348 (0.00)"]
349  [Label = "349 (0.00)"]
350  [Label = "350 (0.00)"]
351  [Label = "351 (0.00)"]
352  [Label = "352 (0.00)"]
353  [Label = "353 (0.00)"]
354  [Label = "354 (0.00)"]
355  [Label = "355 (0.00)"]
356  [Label = "356 (0.00)"]
357  [Label = "357 (0.00)"]
358  [Label = "358 (0.00)"]
359  [Label = "359 (0.00)"]
360  [Label = "360 (0.00)"]
361  [Label = "361 (0.00)"]
362  [Label = "362 (0.00)"]
363  [Label = "363 (0.00)"]
364  [Label = "364 (0.00)"]
365  [Label = "365 (0.00)"]
366  [Label = "366 (0.00)"]
367  [Label = "367 (0.00)"]
368  [Label = "368 (0.00)"]
369  [Label = "369 (0.00)"]
370  [Label = "370 (0.00)"]
371  [Label = "371 (0.00)"]
372  [Label = "372 (0.00)"]
373  [Label = "373 (0.00)"]
374  [Label = "374 (0.00)"]
375  [Label = "375 (0.00)"]
376  [Label = "376 (0.00)"]
377  [Label = "377 (0.00)"]
378  [Label = "378 (0.00)"]
379  [Label = "379 (0.00)"]
380  [Label = "380 (0.00)"]
381  [Label = "381 (0.00)"]
382  [Label = "382 (0.00)"]
383  [Label = "383 (0.00)"]
384  [Label = "384 (0.00)"]
385  [Label = "385 (0.00)"]
386  [Label = "386 (0.00)"]
387  [Label = "387 (0.00)"]
388  [Label = "388 (0.00)"]
389  [Label = "389 (0.00)"]
390  [Label = "390 (0.00)"]
391  [Label = "391 (0.00)"]
392  [Label = "392 (0.00)"]
393  [Label = "393 (0.00)"]
394  [Label = "394 (0.00)"]
395  [Label = "395 (0.00)"]
396  [Label = "396 (0.00)"]
397  [Label = "397 (0.00)"]
398  [Label = "398 (0.00)"]
399  [Label = "399 (0.00)"]
400  [Label = "400 (0.00)"]
401  [Label = "401 (0.00)"]
402  [Label = "402 (0.00)"]
403  [Label = "403 (0.00)"]
404  [Label = "404 (0.00)"]
405  [Label = "405 (0.00)"]
406  [Label = "406 (0.00)"]
407  [Label = "407 (0.00)"]
408  [Label = "408 (0.00)"]
409  [Label = "409 (0.00)"]
410  [Label = "410 (0.00)"]
411  [Label = "411 (0.00)"]
412  [Label = "412 (0.00)"]
413  [Label = "413 (0.00)"]
414  [Label = "414 (0.00)"]
415  [Label = "415 (0.00)"]
416  [Label = "416 (0.00)"]
417  [Label = "417 (0.00)"]
418  [Label = "418 (0.00)"]
419  [Label = "419 (0.00)"]
420  [Label = "420 (0.00)"]
421  [Label = "421 (0.00)"]
422  [Label = "422 (0.00)"]
423  [Label = "423 (0.00)"]
424  [Label = "424 (0.00)"]
425  [Label = "425 (0.00)"]
426  [Label = "426 (0.00)"]
427  [Label = "427 (0.00)"]
428  [Label = "428 (0.00)"]
429  [Label = "429 (0.00)"]
430  [Label = "430 (0.00)"]
431  [Label = "431 (0.00)"]
432  [Label = "432 (0.00)"]
433  [Label = "433 (0.00)"]
434  [Label = "434 (0.00)"]
435  [Label = "435 (0.00)"]
436  [Label = "436 (0.00)"]
437  [Label = "437 (0.00)"]
438  [Label = "438 (0.00)"]
439  [Label = "439 (0.00)"]
440  [Label = "440 (0.00)"]
441  [Label = "441 (0.00)"]
442  [Label = "442 (0.00)"]
443  [Label = "443 (0.00)"]
444  [Label = "444 (0.00)"]
445  [Label = "445 (0.00)"]
446  [Label = "446 (0.00)"]
447  [Label = "447 (0.00)"]
448  [Label = "448 (0.00)"]
449  [Label = "449 (0.00)"]
450  [Label = "450 (0.00)"]
451  [Label = "451 (0.00)"]
452  [Label = "452 (0.00)"]
453  [Label = "453 (0.00)"]
454  [Label = "454 (0.00)"]
455  [Label = "455 (0.00)"]
456  [Label = "456 (0.00)"]
457  [Label = "457 (0.00)"]
458  [Label = "458 (0.00)"]
459  [Label = "459 (0.00)"]
460  [Label = "460 (0.00)"]
461  [Label = "461 (0.00)"]
462  [Label = "462 (0.00)"]
463  [Label = "463 (0.00)"]
464  [Label = "464 (0.00)"]
465  [Label = "465 (0.00)"]
466  [Label = "466 (0.00)"]
467  [Label = "467 (0.00)"]
468  [Label = "468 (0.00)"]
469  [Label = "469 (0.00)"]
470  [Label = "470 (0.00)"]
471  [Label = "471 (0.00)"]
472  [Label = "472 (0.00)"]
473  [Label = "473 (0.00)"]
474  [Label = "474 (0.00)"]
475  [Label = "475 (0.00)"]
476  [Label = "476 (0.00)"]
477  [Label = "477 (0.00)"]
478  [Label = "478 (0.00)"]
479  [Label = "479 (0.00)"]
480  [Label = "480 (0.00)"]
481  [Label = "481 (0.00)"]
482  [Label = "482 (0.00)"]
483  [Label = "483 (0.00)"]
484  [Label = "484 (0.00)"]
485  [Label = "485 (0.00)"]
486  [Label = "486 (0.00)"]
487  [Label = "487 (0.00)"]
488  [Label = "488 (0.00)"]
489  [Label = "489 (0.00)"]
490  [Label = "490 (0.00)"]
491  [Label = "491 (0.00)"]
492  [Label = "492 (0.00)"]
493  [Label = "493 (0.00)"]
494  [Label = "494 (0.00)"]
495  [Label = "495 (0.00)"]
496  [Label = "496 (0.00)"]
497  [Label = "497 (0.00)"]
498  [Label = "498 (0.00)"]
499  [Label = "499 (0.00)"]

106--296  [Label = "64.05"]
2--208  [Label = "51.23"]
41--338  [Label = "47.03"]
79--181  [Label = "45.14"]
115--410  [Label = "44.98"]
110--127  [Label = "44.80"]
294--482  [Label = "42.98"]
60--247  [Label = "41.49"]
196--309  [Label = "39.69"]
154--168  [Label = "39.14"]
86--140  [Label = "39.11"]
113--474  [Label = "38.68"]
101--319  [Label = "37.94"]
216--400  [Label = "37.93"]
99--399  [Label = "36.57"]
115--236  [Label = "36.49"]
369--456  [Label = "34.97"]
242--425  [Label = "33.59"]
332--435  [Label = "33.41"]
185--446  [Label = "33.40"]
175--211  [Label = "33.30"]
43--192  [Label = "31.71"]
71--311  [Label = "31.51"]
146--212  [Label = "31.27"]
32--143  [Label = "31.20"]
142--469  [Label = "30.48"]
6--387  [Label = "30.22"]
10--85  [Label = "29.96"]
264--468  [Label = "29.89"]
48--167  [Label = "29.82"]
335--353  [Label = "29.78"]
280--368  [Label = "29.76"]
136--451  [Label = "29.74"]
241--284  [Label = "29.53"]
218--492  [Label = "29.48"]
63--244  [Label = "29.24"]
9--53  [Label = "28.99"]
108--468  [Label = "28.47"]
209--251  [Label = "28.38"]
160--350  [Label = "28.38"]
140--391  [Label = "28.30"]
50--309  [Label = "28.19"]
249--409  [Label = "28.15"]
40--123  [Label = "28.07"]
48--254  [Label = "27.97"]
92--188  [Label = "27.92"]
261--334  [Label = "27.43"]
57--298  [Label = "27.42"]
90--136  [Label = "27.41"]
64--159  [Label = "26.46"]
7--182  [Label = "26.35"]
107--203  [Label = "26.02"]
13--240  [Label = "25.96"]
422--423  [Label = "25.92"]
409--498  [Label = "25.88"]
109--445  [Label = "25.77"]
80--340  [Label = "25.57"]
128--342  [Label = "25.31"]
206--407  [Label = "25.28"]
227--354  [Label = "25.04"]
277--412  [Label = "24.66"]
120--461  [Label = "24.61"]
179--417  [Label = "24.30"]
200--385  [Label = "24.28"]
189--421  [Label = "24.15"]
185--404  [Label = "24.10"]
53--202  [Label = "23.93"]
257--409  [Label = "23.89"]
182--405  [Label = "23.63"]
235--478  [Label = "23.31"]
78--334  [Label = "23.13"]
15--255  [Label = "23.01"]
145--229  [Label = "22.88"]
126--133  [Label = "22.81"]
304--342  [Label = "22.74"]
204--410  [Label = "22.16"]
232--466  [Label = "22.13"]
97--461  [Label = "22.03"]
189--391  [Label = "21.98"]
245--398  [Label = "21.44"]
358--431  [Label = "21.33"]
51--427  [Label = "21.31"]
111--346  [Label = "21.31"]
24--279  [Label = "21.21"]
4--345  [Label = "20.87"]
372--440  [Label = "20.80"]
39--286  [Label = "20.59"]
221--373  [Label = "20.49"]
103--295  [Label = "20.15"]
130--313  [Label = "20.08"]
223--415  [Label = "20.03"]
410--497  [Label = "20.01"]
291--363  [Label = "19.93"]
177--250  [Label = "19.81"]
21--104  [Label = "19.61"]
395--441  [Label = "19.55"]
201--255  [Label = "19.51"]
65--191  [Label = "19.36"]
135--215  [Label = "19.36"]
187--485  [Label = "19.31"]
111--158  [Label = "19.29"]
190--314  [Label = "19.21"]
226--278  [Label = "19.11"]
292--391  [Label = "18.92"]
430--473  [Label = "18.76"]
165--364  [Label = "18.70"]
230--460  [Label = "18.64"]
26--103  [Label = "18.63"]
171--390  [Label = "18.27"]
46--381  [Label = "18.17"]
42--325  [Label = "18.05"]
102--112  [Label = "18.03"]
99--495  [Label = "18.01"]
19--96  [Label = "17.83"]
361--448  [Label = "17.61"]
220--453  [Label = "17.54"]
178--486  [Label = "17.52"]
138--152  [Label = "17.51"]
192--331  [Label = "17.46"]
105--447  [Label = "17.43"]
276--327  [Label = "17.28"]
191--466  [Label = "17.22"]
433--444  [Label = "17.09"]
382--409  [Label = "17.04"]
35--237  [Label = "17.00"]
149--281  [Label = "16.94"]
117--414  [Label = "16.86"]
150--488  [Label = "16.84"]
145--171  [Label = "16.80"]
457--465  [Label = "16.74"]
13--44  [Label = "16.72"]
150--349  [Label = "16.70"]
98--118  [Label = "16.53"]
327--381  [Label = "16.50"]
33--336  [Label = "16.37"]
170--367  [Label = "16.31"]
302--477  [Label = "16.27"]
3--118  [Label = "16.12"]
107--137  [Label = "16.10"]
78--237  [Label = "16.09"]
370--381  [Label = "16.09"]
331--360  [Label = "16.00"]
219--497  [Label = "16.00"]
50--51  [Label = "15.93"]
148--419  [Label = "15.92"]
163--434  [Label = "15.91"]
151--321  [Label = "15.81"]
141--228  [Label = "15.80"]
122--441  [Label = "15.79"]
132--441  [Label = "15.78"]
1--34  [Label = "15.77"]
219--287  [Label = "15.75"]
97--306  [Label = "15.72"]
246--340  [Label = "15.72"]
168--389  [Label = "15.60"]
247--405  [Label = "15.51"]
263--345  [Label = "15.45"]
149--394  [Label = "15.41"]
169--450  [Label = "15.40"]
141--394  [Label = "15.34"]
223--450  [Label = "15.30"]
37--142  [Label = "15.24"]
315--358  [Label = "15.24"]
55--177  [Label = "15.19"]
175--401  [Label = "15.16"]
195--480  [Label = "15.16"]
39--282  [Label = "15.11"]
247--479  [Label = "15.09"]
232--450  [Label = "15.04"]
291--352  [Label = "15.03"]
64--235  [Label = "14.94"]
42--418  [Label = "14.92"]
255--427  [Label = "14.89"]
175--238  [Label = "14.87"]
181--410  [Label = "14.74"]
95--471  [Label = "14.73"]
335--379  [Label = "14.56"]
96--401  [Label = "14.36"]
364--419  [Label = "14.31"]
97--289  [Label = "14.30"]
52--96  [Label = "14.27"]
16--80  [Label = "14.23"]
226--322  [Label = "14.15"]
63--330  [Label = "14.14"]
462--494  [Label = "14.11"]
16--347  [Label = "14.02"]
287--482  [Label = "13.96"]
113--307  [Label = "13.89"]
323--483  [Label = "13.88"]
156--198  [Label = "13.86"]
433--439  [Label = "13.86"]
165--424  [Label = "13.79"]
22--489  [Label = "13.75"]
238--436  [Label = "13.73"]
455--460  [Label = "13.68"]
14--297  [Label = "13.66"]
184--428  [Label = "13.60"]
178--233  [Label = "13.57"]
67--338  [Label = "13.56"]
149--208  [Label = "13.55"]
23--27  [Label = "13.47"]
315--330  [Label = "13.43"]
190--343  [Label = "13.35"]
84--122  [Label = "13.28"]
73--458  [Label = "13.27"]
14--442  [Label = "13.23"]
322--363  [Label = "13.19"]
17--412  [Label = "13.13"]
199--323  [Label = "13.12"]
119--429  [Label = "13.08"]
180--321  [Label = "13.03"]
174--266  [Label = "13.02"]
122--251  [Label = "13.01"]
223--326  [Label = "12.95"]
316--488  [Label = "12.94"]
126--135  [Label = "12.90"]
14--207  [Label = "12.90"]
257--411  [Label = "12.86"]
159--496  [Label = "12.82"]
155--371  [Label = "12.80"]
360--453  [Label = "12.76"]
36--177  [Label = "12.68"]
97--425  [Label = "12.64"]
313--419  [Label = "12.62"]
150--289  [Label = "12.57"]
422--472  [Label = "12.54"]
31--467  [Label = "12.47"]
56--240  [Label = "12.43"]
83--427  [Label = "12.42"]
82--175  [Label = "12.38"]
172--438  [Label = "12.37"]
162--438  [Label = "12.33"]
130--265  [Label = "12.31"]
168--234  [Label = "12.14"]
13--458  [Label = "12.12"]
144--378  [Label = "12.09"]
37--361  [Label = "12.08"]
174--198  [Label = "12.07"]
80--453  [Label = "12.04"]
335--415  [Label = "12.02"]
18--357  [Label = "11.97"]
174--437  [Label = "11.96"]
39--392  [Label = "11.92"]
52--385  [Label = "11.85"]
224--252  [Label = "11.79"]
117--262  [Label = "11.76"]
112--481  [Label = "11.75"]
153--473  [Label = "11.72"]
342--404  [Label = "11.66"]
31--238  [Label = "11.64"]
324--495  [Label = "11.53"]
23--459  [Label = "11.46"]
93--416  [Label = "11.40"]
164--394  [Label = "11.37"]
138--193  [Label = "11.36"]
312--449  [Label = "11.36"]
20--234  [Label = "11.30"]
34--272  [Label = "11.30"]
222--252  [Label = "11.17"]
89--144  [Label = "11.11"]
59--239  [Label = "11.06"]
24--290  [Label = "10.95"]
361--443  [Label = "10.95"]
116--258  [Label = "10.88"]
197--315  [Label = "10.75"]
343--442  [Label = "10.74"]
8--291  [Label = "10.74"]
62--100  [Label = "10.67"]
210--483  [Label = "10.66"]
306--363  [Label = "10.59"]
12--491  [Label = "10.48"]
144--475  [Label = "10.37"]
197--282  [Label = "10.37"]
288--416  [Label = "10.29"]
6--321  [Label = "10.29"]
364--383  [Label = "10.26"]
58--384  [Label = "10.24"]
341--400  [Label = "10.22"]
245--373  [Label = "10.11"]
276--499  [Label = "10.11"]
258--288  [Label = "10.06"]
162--457  [Label = "9.90"]
408--439  [Label = "9.86"]
94--488  [Label = "9.84"]
118--170  [Label = "9.79"]
69--166  [Label = "9.78"]
360--403  [Label = "9.70"]
71--268  [Label = "9.66"]
90--408  [Label = "9.62"]
119--260  [Label = "9.52"]
147--269  [Label = "9.31"]
36--138  [Label = "9.27"]
252--283  [Label = "9.19"]
432--484  [Label = "9.16"]
46--337  [Label = "9.15"]
100--366  [Label = "9.10"]
42--488  [Label = "9.04"]
182--217  [Label = "8.98"]
305--412  [Label = "8.94"]
29--84  [Label = "8.94"]
386--444  [Label = "8.92"]
14--275  [Label = "8.91"]
137--171  [Label = "8.88"]
97--171  [Label = "8.87"]
233--274  [Label = "8.85"]
139--395  [Label = "8.85"]
116--257  [Label = "8.84"]
400--485  [Label = "8.81"]
109--219  [Label = "8.79"]
147--285  [Label = "8.76"]
64--188  [Label = "8.73"]
317--397  [Label = "8.73"]
129--459  [Label = "8.73"]
5--16  [Label = "8.49"]
258--311  [Label = "8.48"]
375--380  [Label = "8.45"]
412--418  [Label = "8.43"]
25--26  [Label = "8.42"]
197--480  [Label = "8.41"]
163--317  [Label = "8.34"]
11--305  [Label = "8.27"]
301--470  [Label = "8.22"]
271--273  [Label = "8.11"]
81--124  [Label = "8.10"]
185--303  [Label = "8.04"]
333--426  [Label = "8.03"]
84--406  [Label = "7.99"]
186--392  [Label = "7.96"]
111--476  [Label = "7.87"]
117--357  [Label = "7.86"]
8--101  [Label = "7.82"]
322--464  [Label = "7.78"]
15--68  [Label = "7.74"]
266--485  [Label = "7.70"]
9--173  [Label = "7.69"]
28--478  [Label = "7.65"]
52--253  [Label = "7.65"]
141--144  [Label = "7.61"]
13--483  [Label = "7.58"]
118--190  [Label = "7.57"]
243--479  [Label = "7.50"]
180--357  [Label = "7.45"]
223--259  [Label = "7.40"]
214--283  [Label = "7.39"]
45--251  [Label = "7.39"]
74--430  [Label = "7.38"]
23--45  [Label = "7.34"]
75--459  [Label = "7.30"]
357--403  [Label = "7.27"]
359--432  [Label = "7.25"]
404--438  [Label = "7.21"]
300--377  [Label = "7.18"]
63--160  [Label = "7.14"]
293--321  [Label = "7.12"]
153--479  [Label = "6.96"]
76--141  [Label = "6.90"]
47--222  [Label = "6.88"]
102--215  [Label = "6.81"]
96--407  [Label = "6.79"]
89--215  [Label = "6.79"]
76--256  [Label = "6.76"]
29--234  [Label = "6.75"]
109--110  [Label = "6.68"]
351--471  [Label = "6.63"]
58--200  [Label = "6.59"]
407--479  [Label = "6.54"]
251--318  [Label = "6.46"]
374--416  [Label = "6.39"]
278--376  [Label = "6.39"]
190--202  [Label = "6.38"]
70--454  [Label = "6.37"]
3--463  [Label = "6.32"]
33--289  [Label = "6.25"]
352--474  [Label = "6.23"]
70--155  [Label = "6.17"]
20--59  [Label = "6.06"]
121--344  [Label = "6.01"]
235--463  [Label = "5.95"]
16--114  [Label = "5.93"]
148--375  [Label = "5.88"]
416--420  [Label = "5.81"]
338--490  [Label = "5.80"]
176--354  [Label = "5.80"]
40--349  [Label = "5.78"]
124--322  [Label = "5.74"]
38--263  [Label = "5.65"]
148--369  [Label = "5.62"]
215--264  [Label = "5.62"]
118--318  [Label = "5.59"]
339--425  [Label = "5.56"]
199--348  [Label = "5.56"]
164--333  [Label = "5.53"]
379--491  [Label = "5.48"]
223--454  [Label = "5.46"]
125--343  [Label = "5.45"]
87--165  [Label = "5.41"]
194--474  [Label = "5.39"]
202--271  [Label = "5.38"]
6--30  [Label = "5.34"]
107--301  [Label = "5.24"]
355--481  [Label = "5.22"]
221--449  [Label = "5.22"]
32--300  [Label = "5.12"]
47--259  [Label = "5.11"]
86--365  [Label = "5.09"]
66--117  [Label = "5.09"]
388--439  [Label = "4.98"]
213--312  [Label = "4.96"]
153--199  [Label = "4.81"]
349--477  [Label = "4.80"]
122--270  [Label = "4.76"]
234--295  [Label = "4.71"]
31--179  [Label = "4.65"]
84--452  [Label = "4.58"]
77--245  [Label = "4.57"]
282--492  [Label = "4.51"]
22--459  [Label = "4.51"]
31--351  [Label = "4.45"]
72--477  [Label = "4.42"]
418--463  [Label = "4.38"]
283--298  [Label = "4.35"]
238--308  [Label = "4.30"]
107--162  [Label = "4.30"]
125--416  [Label = "4.28"]
114--328  [Label = "4.21"]
150--432  [Label = "4.20"]
10--203  [Label = "4.12"]
56--320  [Label = "4.10"]
129--224  [Label = "4.09"]
131--410  [Label = "3.98"]
402--405  [Label = "3.98"]
61--491  [Label = "3.98"]
208--225  [Label = "3.86"]
262--437  [Label = "3.76"]
224--413  [Label = "3.73"]
139--329  [Label = "3.68"]
4--95  [Label = "3.66"]
90--297  [Label = "3.55"]
251--372  [Label = "3.52"]
23--67  [Label = "3.38"]
184--435  [Label = "3.30"]
0--82  [Label = "3.19"]
189--493  [Label = "3.17"]
412--472  [Label = "3.17"]
10--24  [Label = "3.15"]
29--448  [Label = "3.14"]
170--396  [Label = "3.13"]
14--48  [Label = "3.11"]
377--401  [Label = "3.07"]
69--495  [Label = "2.94"]
271--354  [Label = "2.94"]
42--274  [Label = "2.88"]
205--362  [Label = "2.85"]
161--387  [Label = "2.83"]
45--157  [Label = "2.81"]
267--459  [Label = "2.71"]
49--107  [Label = "2.68"]
132--260  [Label = "2.66"]
69--426  [Label = "2.66"]
89--231  [Label = "2.61"]
3--63  [Label = "2.57"]
287--494  [Label = "2.46"]
272--448  [Label = "2.45"]
45--104  [Label = "2.38"]
441--462  [Label = "2.33"]
183--393  [Label = "2.33"]
346--487  [Label = "2.32"]
134--372  [Label = "2.32"]
284--492  [Label = "2.21"]
156--356  [Label = "2.16"]
228--411  [Label = "2.14"]
348--433  [Label = "2.12"]
35--54  [Label = "2.10"]
45--428  [Label = "2.08"]
94--476  [Label = "2.08"]
165--460  [Label = "2.07"]
357--372  [Label = "1.93"]
54--117  [Label = "1.90"]
303--427  [Label = "1.90"]
210--434  [Label = "1.80"]
106--393  [Label = "1.77"]
393--484  [Label = "1.71"]
178--362  [Label = "1.69"]
324--455  [Label = "1.67"]
134--381  [Label = "1.67"]
34--62  [Label = "1.66"]
88--424  [Label = "1.63"]
105--193  [Label = "1.62"]
177--341  [Label = "1.53"]
146--376  [Label = "1.48"]
62--147  [Label = "1.44"]
152--248  [Label = "1.42"]
114--344  [Label = "1.30"]
91--462  [Label = "1.24"]
280--463  [Label = "1.22"]
449--474  [Label = "1.22"]
310--335  [Label = "1.17"]
139--299  [Label = "1.09"]
189--299  [Label = "1.07"]
}
