graph 666{
97  [Label = "97 (0.00)"]
495  [Label = "495 (0.00)"]
5  [Label = "5 (0.00)"]
348  [Label = "348 (0.00)"]
317  [Label = "317 (0.00)"]
430  [Label = "430 (0.00)"]
34  [Label = "34 (0.00)"]
295  [Label = "295 (0.00)"]
228  [Label = "228 (0.00)"]
319  [Label = "319 (0.00)"]
157  [Label = "157 (0.00)"]
343  [Label = "343 (0.00)"]
387  [Label = "387 (0.00)"]
222  [Label = "222 (0.00)"]
491  [Label = "491 (0.00)"]
376  [Label = "376 (0.00)"]
45  [Label = "45 (0.00)"]
267  [Label = "267 (0.00)"]
123  [Label = "123 (0.00)"]
431  [Label = "431 (0.00)"]
79  [Label = "79 (0.00)"]
276  [Label = "276 (0.00)"]
198  [Label = "198 (0.00)"]
494  [Label = "494 (0.00)"]
220  [Label = "220 (0.00)"]
281  [Label = "281 (0.00)"]
344  [Label = "344 (0.00)"]
62  [Label = "62 (0.00)"]
332  [Label = "332 (0.00)"]
163  [Label = "163 (0.00)"]
406  [Label = "406 (0.00)"]
32  [Label = "32 (0.00)"]
232  [Label = "232 (0.00)"]
105  [Label = "105 (0.00)"]
194  [Label = "194 (0.00)"]
302  [Label = "302 (0.00)"]
451  [Label = "451 (0.00)"]
278  [Label = "278 (0.00)"]
381  [Label = "381 (0.00)"]
153  [Label = "153 (0.00)"]
206  [Label = "206 (0.00)"]
255  [Label = "255 (0.00)"]
475  [Label = "475 (0.00)"]
481  [Label = "481 (0.00)"]
154  [Label = "154 (0.00)"]
303  [Label = "303 (0.00)"]
296  [Label = "296 (0.00)"]
300  [Label = "300 (0.00)"]
43  [Label = "43 (0.00)"]
395  [Label = "395 (0.00)"]
122  [Label = "122 (0.00)"]
159  [Label = "159 (0.00)"]
201  [Label = "201 (0.00)"]
349  [Label = "349 (0.00)"]
229  [Label = "229 (0.00)"]
164  [Label = "164 (0.00)"]
230  [Label = "230 (0.00)"]
359  [Label = "359 (0.00)"]
392  [Label = "392 (0.00)"]
167  [Label = "167 (0.00)"]
195  [Label = "195 (0.00)"]
44  [Label = "44 (0.00)"]
413  [Label = "413 (0.00)"]
456  [Label = "456 (0.00)"]
178  [Label = "178 (0.00)"]
365  [Label = "365 (0.00)"]
95  [Label = "95 (0.00)"]
203  [Label = "203 (0.00)"]
20  [Label = "20 (0.00)"]
244  [Label = "244 (0.00)"]
352  [Label = "352 (0.00)"]
39  [Label = "39 (0.00)"]
422  [Label = "422 (0.00)"]
389  [Label = "389 (0.00)"]
65  [Label = "65 (0.00)"]
493  [Label = "493 (0.00)"]
133  [Label = "133 (0.00)"]
378  [Label = "378 (0.00)"]
398  [Label = "398 (0.00)"]
30  [Label = "30 (0.00)"]
438  [Label = "438 (0.00)"]
60  [Label = "60 (0.00)"]
350  [Label = "350 (0.00)"]
301  [Label = "301 (0.00)"]
362  [Label = "362 (0.00)"]
239  [Label = "239 (0.00)"]
342  [Label = "342 (0.00)"]
51  [Label = "51 (0.00)"]
386  [Label = "386 (0.00)"]
293  [Label = "293 (0.00)"]
226  [Label = "226 (0.00)"]
379  [Label = "379 (0.00)"]
185  [Label = "185 (0.00)"]
324  [Label = "324 (0.00)"]
212  [Label = "212 (0.00)"]
305  [Label = "305 (0.00)"]
18  [Label = "18 (0.00)"]
257  [Label = "257 (0.00)"]
243  [Label = "243 (0.00)"]
408  [Label = "408 (0.00)"]
271  [Label = "271 (0.00)"]
432  [Label = "432 (0.00)"]
29  [Label = "29 (0.00)"]
174  [Label = "174 (0.00)"]
428  [Label = "428 (0.00)"]
470  [Label = "470 (0.00)"]
6  [Label = "6 (0.00)"]
235  [Label = "235 (0.00)"]
334  [Label = "334 (0.00)"]
463  [Label = "463 (0.00)"]
73  [Label = "73 (0.00)"]
148  [Label = "148 (0.00)"]
77  [Label = "77 (0.00)"]
396  [Label = "396 (0.00)"]
0  [Label = "0 (0.00)"]
361  [Label = "361 (0.00)"]
180  [Label = "180 (0.00)"]
191  [Label = "191 (0.00)"]
85  [Label = "85 (0.00)"]
248  [Label = "248 (0.00)"]
449  [Label = "449 (0.00)"]
12  [Label = "12 (0.00)"]
26  [Label = "26 (0.00)"]
117  [Label = "117 (0.00)"]
116  [Label = "116 (0.00)"]
412  [Label = "412 (0.00)"]
67  [Label = "67 (0.00)"]
72  [Label = "72 (0.00)"]
221  [Label = "221 (0.00)"]
307  [Label = "307 (0.00)"]
442  [Label = "442 (0.00)"]
114  [Label = "114 (0.00)"]
224  [Label = "224 (0.00)"]
70  [Label = "70 (0.00)"]
309  [Label = "309 (0.00)"]
337  [Label = "337 (0.00)"]
103  [Label = "103 (0.00)"]
15  [Label = "15 (0.00)"]
487  [Label = "487 (0.00)"]
35  [Label = "35 (0.00)"]
99  [Label = "99 (0.00)"]
166  [Label = "166 (0.00)"]
190  [Label = "190 (0.00)"]
473  [Label = "473 (0.00)"]
171  [Label = "171 (0.00)"]
3  [Label = "3 (0.00)"]
2  [Label = "2 (0.00)"]
254  [Label = "254 (0.00)"]
53  [Label = "53 (0.00)"]
313  [Label = "313 (0.00)"]
119  [Label = "119 (0.00)"]
21  [Label = "21 (0.00)"]
91  [Label = "91 (0.00)"]
363  [Label = "363 (0.00)"]
358  [Label = "358 (0.00)"]
1  [Label = "1 (0.00)"]
390  [Label = "390 (0.00)"]
418  [Label = "418 (0.00)"]
400  [Label = "400 (0.00)"]
213  [Label = "213 (0.00)"]
294  [Label = "294 (0.00)"]
477  [Label = "477 (0.00)"]
124  [Label = "124 (0.00)"]
106  [Label = "106 (0.00)"]
210  [Label = "210 (0.00)"]
346  [Label = "346 (0.00)"]
291  [Label = "291 (0.00)"]
339  [Label = "339 (0.00)"]
483  [Label = "483 (0.00)"]
499  [Label = "499 (0.00)"]
138  [Label = "138 (0.00)"]
288  [Label = "288 (0.00)"]
268  [Label = "268 (0.00)"]
27  [Label = "27 (0.00)"]
385  [Label = "385 (0.00)"]
485  [Label = "485 (0.00)"]
94  [Label = "94 (0.00)"]
397  [Label = "397 (0.00)"]
404  [Label = "404 (0.00)"]
458  [Label = "458 (0.00)"]
177  [Label = "177 (0.00)"]
310  [Label = "310 (0.00)"]
410  [Label = "410 (0.00)"]
145  [Label = "145 (0.00)"]
380  [Label = "380 (0.00)"]
237  [Label = "237 (0.00)"]
266  [Label = "266 (0.00)"]
447  [Label = "447 (0.00)"]
8  [Label = "8 (0.00)"]
357  [Label = "357 (0.00)"]
158  [Label = "158 (0.00)"]
80  [Label = "80 (0.00)"]
121  [Label = "121 (0.00)"]
14  [Label = "14 (0.00)"]
274  [Label = "274 (0.00)"]
55  [Label = "55 (0.00)"]
427  [Label = "427 (0.00)"]
464  [Label = "464 (0.00)"]
388  [Label = "388 (0.00)"]
112  [Label = "112 (0.00)"]
59  [Label = "59 (0.00)"]
327  [Label = "327 (0.00)"]
479  [Label = "479 (0.00)"]
86  [Label = "86 (0.00)"]
204  [Label = "204 (0.00)"]
382  [Label = "382 (0.00)"]
253  [Label = "253 (0.00)"]
329  [Label = "329 (0.00)"]
31  [Label = "31 (0.00)"]
360  [Label = "360 (0.00)"]
450  [Label = "450 (0.00)"]
147  [Label = "147 (0.00)"]
162  [Label = "162 (0.00)"]
22  [Label = "22 (0.00)"]
219  [Label = "219 (0.00)"]
78  [Label = "78 (0.00)"]
84  [Label = "84 (0.00)"]
88  [Label = "88 (0.00)"]
445  [Label = "445 (0.00)"]
98  [Label = "98 (0.00)"]
366  [Label = "366 (0.00)"]
102  [Label = "102 (0.00)"]
256  [Label = "256 (0.00)"]
47  [Label = "47 (0.00)"]
416  [Label = "416 (0.00)"]
36  [Label = "36 (0.00)"]
132  [Label = "132 (0.00)"]
336  [Label = "336 (0.00)"]
82  [Label = "82 (0.00)"]
315  [Label = "315 (0.00)"]
384  [Label = "384 (0.00)"]
328  [Label = "328 (0.00)"]
355  [Label = "355 (0.00)"]
199  [Label = "199 (0.00)"]
89  [Label = "89 (0.00)"]
144  [Label = "144 (0.00)"]
37  [Label = "37 (0.00)"]
401  [Label = "401 (0.00)"]
472  [Label = "472 (0.00)"]
496  [Label = "496 (0.00)"]
214  [Label = "214 (0.00)"]
340  [Label = "340 (0.00)"]
466  [Label = "466 (0.00)"]
81  [Label = "81 (0.00)"]
100  [Label = "100 (0.00)"]
135  [Label = "135 (0.00)"]
277  [Label = "277 (0.00)"]
423  [Label = "423 (0.00)"]
312  [Label = "312 (0.00)"]
41  [Label = "41 (0.00)"]
286  [Label = "286 (0.00)"]
417  [Label = "417 (0.00)"]
137  [Label = "137 (0.00)"]
236  [Label = "236 (0.00)"]
136  [Label = "136 (0.00)"]
261  [Label = "261 (0.00)"]
28  [Label = "28 (0.00)"]
465  [Label = "465 (0.00)"]
196  [Label = "196 (0.00)"]
338  [Label = "338 (0.00)"]
283  [Label = "283 (0.00)"]
19  [Label = "19 (0.00)"]
152  [Label = "152 (0.00)"]
48  [Label = "48 (0.00)"]
71  [Label = "71 (0.00)"]
368  [Label = "368 (0.00)"]
439  [Label = "439 (0.00)"]
383  [Label = "383 (0.00)"]
377  [Label = "377 (0.00)"]
402  [Label = "402 (0.00)"]
429  [Label = "429 (0.00)"]
421  [Label = "421 (0.00)"]
149  [Label = "149 (0.00)"]
318  [Label = "318 (0.00)"]
247  [Label = "247 (0.00)"]
223  [Label = "223 (0.00)"]
304  [Label = "304 (0.00)"]
375  [Label = "375 (0.00)"]
139  [Label = "139 (0.00)"]
372  [Label = "372 (0.00)"]
269  [Label = "269 (0.00)"]
297  [Label = "297 (0.00)"]
326  [Label = "326 (0.00)"]
364  [Label = "364 (0.00)"]
131  [Label = "131 (0.00)"]
202  [Label = "202 (0.00)"]
134  [Label = "134 (0.00)"]
452  [Label = "452 (0.00)"]
110  [Label = "110 (0.00)"]
280  [Label = "280 (0.00)"]
462  [Label = "462 (0.00)"]
187  [Label = "187 (0.00)"]
7  [Label = "7 (0.00)"]
444  [Label = "444 (0.00)"]
314  [Label = "314 (0.00)"]
455  [Label = "455 (0.00)"]
9  [Label = "9 (0.00)"]
260  [Label = "260 (0.00)"]
197  [Label = "197 (0.00)"]
457  [Label = "457 (0.00)"]
193  [Label = "193 (0.00)"]
480  [Label = "480 (0.00)"]
58  [Label = "58 (0.00)"]
488  [Label = "488 (0.00)"]
108  [Label = "108 (0.00)"]
49  [Label = "49 (0.00)"]
448  [Label = "448 (0.00)"]
306  [Label = "306 (0.00)"]
24  [Label = "24 (0.00)"]
87  [Label = "87 (0.00)"]
440  [Label = "440 (0.00)"]
168  [Label = "168 (0.00)"]
172  [Label = "172 (0.00)"]
264  [Label = "264 (0.00)"]
371  [Label = "371 (0.00)"]
251  [Label = "251 (0.00)"]
113  [Label = "113 (0.00)"]
64  [Label = "64 (0.00)"]
238  [Label = "238 (0.00)"]
347  [Label = "347 (0.00)"]
345  [Label = "345 (0.00)"]
52  [Label = "52 (0.00)"]
437  [Label = "437 (0.00)"]
151  [Label = "151 (0.00)"]
405  [Label = "405 (0.00)"]
403  [Label = "403 (0.00)"]
335  [Label = "335 (0.00)"]
262  [Label = "262 (0.00)"]
292  [Label = "292 (0.00)"]
259  [Label = "259 (0.00)"]
54  [Label = "54 (0.00)"]
127  [Label = "127 (0.00)"]
225  [Label = "225 (0.00)"]
66  [Label = "66 (0.00)"]
93  [Label = "93 (0.00)"]
175  [Label = "175 (0.00)"]
231  [Label = "231 (0.00)"]
353  [Label = "353 (0.00)"]
109  [Label = "109 (0.00)"]
40  [Label = "40 (0.00)"]
142  [Label = "142 (0.00)"]
161  [Label = "161 (0.00)"]
419  [Label = "419 (0.00)"]
17  [Label = "17 (0.00)"]
284  [Label = "284 (0.00)"]
289  [Label = "289 (0.00)"]
33  [Label = "33 (0.00)"]
104  [Label = "104 (0.00)"]
393  [Label = "393 (0.00)"]
454  [Label = "454 (0.00)"]
425  [Label = "425 (0.00)"]
182  [Label = "182 (0.00)"]
391  [Label = "391 (0.00)"]
265  [Label = "265 (0.00)"]
69  [Label = "69 (0.00)"]
140  [Label = "140 (0.00)"]
394  [Label = "394 (0.00)"]
486  [Label = "486 (0.00)"]
233  [Label = "233 (0.00)"]
126  [Label = "126 (0.00)"]
484  [Label = "484 (0.00)"]
453  [Label = "453 (0.00)"]
252  [Label = "252 (0.00)"]
424  [Label = "424 (0.00)"]
74  [Label = "74 (0.00)"]
181  [Label = "181 (0.00)"]
83  [Label = "83 (0.00)"]
476  [Label = "476 (0.00)"]
242  [Label = "242 (0.00)"]
275  [Label = "275 (0.00)"]
414  [Label = "414 (0.00)"]
492  [Label = "492 (0.00)"]
321  [Label = "321 (0.00)"]
216  [Label = "216 (0.00)"]
351  [Label = "351 (0.00)"]
56  [Label = "56 (0.00)"]
218  [Label = "218 (0.00)"]
298  [Label = "298 (0.00)"]
411  [Label = "411 (0.00)"]
90  [Label = "90 (0.00)"]
299  [Label = "299 (0.00)"]
273  [Label = "273 (0.00)"]
111  [Label = "111 (0.00)"]
322  [Label = "322 (0.00)"]
25  [Label = "25 (0.00)"]
173  [Label = "173 (0.00)"]
354  [Label = "354 (0.00)"]
200  [Label = "200 (0.00)"]
407  [Label = "407 (0.00)"]
215  [Label = "215 (0.00)"]
316  [Label = "316 (0.00)"]
186  [Label = "186 (0.00)"]
471  [Label = "471 (0.00)"]
460  [Label = "460 (0.00)"]
13  [Label = "13 (0.00)"]
459  [Label = "459 (0.00)"]
333  [Label = "333 (0.00)"]
92  [Label = "92 (0.00)"]
46  [Label = "46 (0.00)"]
409  [Label = "409 (0.00)"]
246  [Label = "246 (0.00)"]
241  [Label = "241 (0.00)"]
263  [Label = "263 (0.00)"]
461  [Label = "461 (0.00)"]
101  [Label = "101 (0.00)"]
468  [Label = "468 (0.00)"]
497  [Label = "497 (0.00)"]
160  [Label = "160 (0.00)"]
290  [Label = "290 (0.00)"]
42  [Label = "42 (0.00)"]
205  [Label = "205 (0.00)"]
285  [Label = "285 (0.00)"]
23  [Label = "23 (0.00)"]
192  [Label = "192 (0.00)"]
188  [Label = "188 (0.00)"]
165  [Label = "165 (0.00)"]
61  [Label = "61 (0.00)"]
498  [Label = "498 (0.00)"]
76  [Label = "76 (0.00)"]
308  [Label = "308 (0.00)"]
11  [Label = "11 (0.00)"]
489  [Label = "489 (0.00)"]
156  [Label = "156 (0.00)"]
176  [Label = "176 (0.00)"]
128  [Label = "128 (0.00)"]
325  [Label = "325 (0.00)"]
249  [Label = "249 (0.00)"]
169  [Label = "169 (0.00)"]
130  [Label = "130 (0.00)"]
282  [Label = "282 (0.00)"]
146  [Label = "146 (0.00)"]
341  [Label = "341 (0.00)"]
143  [Label = "143 (0.00)"]
250  [Label = "250 (0.00)"]
426  [Label = "426 (0.00)"]
208  [Label = "208 (0.00)"]
10  [Label = "10 (0.00)"]
369  [Label = "369 (0.00)"]
141  [Label = "141 (0.00)"]
50  [Label = "50 (0.00)"]
120  [Label = "120 (0.00)"]
38  [Label = "38 (0.00)"]
16  [Label = "16 (0.00)"]
331  [Label = "331 (0.00)"]
434  [Label = "434 (0.00)"]
272  [Label = "272 (0.00)"]
209  [Label = "209 (0.00)"]
75  [Label = "75 (0.00)"]
217  [Label = "217 (0.00)"]
96  [Label = "96 (0.00)"]
258  [Label = "258 (0.00)"]
107  [Label = "107 (0.00)"]
68  [Label = "68 (0.00)"]
184  [Label = "184 (0.00)"]
320  [Label = "320 (0.00)"]
373  [Label = "373 (0.00)"]
179  [Label = "179 (0.00)"]
482  [Label = "482 (0.00)"]
323  [Label = "323 (0.00)"]
474  [Label = "474 (0.00)"]
478  [Label = "478 (0.00)"]
118  [Label = "118 (0.00)"]
125  [Label = "125 (0.00)"]
57  [Label = "57 (0.00)"]
240  [Label = "240 (0.00)"]
374  [Label = "374 (0.00)"]
367  [Label = "367 (0.00)"]
270  [Label = "270 (0.00)"]
467  [Label = "467 (0.00)"]
234  [Label = "234 (0.00)"]
279  [Label = "279 (0.00)"]
399  [Label = "399 (0.00)"]
245  [Label = "245 (0.00)"]
227  [Label = "227 (0.00)"]
469  [Label = "469 (0.00)"]
433  [Label = "433 (0.00)"]
170  [Label = "170 (0.00)"]
443  [Label = "443 (0.00)"]
115  [Label = "115 (0.00)"]
4  [Label = "4 (0.00)"]
189  [Label = "189 (0.00)"]
211  [Label = "211 (0.00)"]
356  [Label = "356 (0.00)"]
490  [Label = "490 (0.00)"]
183  [Label = "183 (0.00)"]
436  [Label = "436 (0.00)"]
435  [Label = "435 (0.00)"]
420  [Label = "420 (0.00)"]
150  [Label = "150 (0.00)"]
155  [Label = "155 (0.00)"]
207  [Label = "207 (0.00)"]
370  [Label = "370 (0.00)"]
63  [Label = "63 (0.00)"]
446  [Label = "446 (0.00)"]
415  [Label = "415 (0.00)"]
330  [Label = "330 (0.00)"]
441  [Label = "441 (0.00)"]
311  [Label = "311 (0.00)"]
287  [Label = "287 (0.00)"]
129  [Label = "129 (0.00)"]

97--495  [Label = "1.01"]
5--348  [Label = "1.01"]
317--430  [Label = "1.02"]
34--295  [Label = "1.03"]
228--319  [Label = "1.04"]
157--295  [Label = "1.04"]
343--387  [Label = "1.05"]
222--491  [Label = "1.06"]
376--495  [Label = "1.11"]
45--267  [Label = "1.11"]
123--431  [Label = "1.13"]
79--276  [Label = "1.14"]
198--494  [Label = "1.14"]
123--220  [Label = "1.17"]
281--344  [Label = "1.18"]
62--387  [Label = "1.18"]
332--348  [Label = "1.18"]
163--406  [Label = "1.19"]
32--232  [Label = "1.19"]
105--194  [Label = "1.20"]
302--451  [Label = "1.21"]
278--381  [Label = "1.23"]
153--376  [Label = "1.23"]
206--255  [Label = "1.23"]
475--481  [Label = "1.24"]
154--303  [Label = "1.25"]
296--300  [Label = "1.26"]
43--395  [Label = "1.27"]
122--159  [Label = "1.28"]
201--349  [Label = "1.28"]
229--278  [Label = "1.29"]
164--230  [Label = "1.31"]
359--392  [Label = "1.33"]
167--195  [Label = "1.33"]
32--44  [Label = "1.34"]
413--456  [Label = "1.35"]
178--365  [Label = "1.36"]
95--203  [Label = "1.36"]
20--244  [Label = "1.36"]
105--352  [Label = "1.37"]
39--422  [Label = "1.40"]
44--389  [Label = "1.41"]
65--493  [Label = "1.41"]
133--475  [Label = "1.41"]
378--398  [Label = "1.43"]
30--438  [Label = "1.44"]
60--230  [Label = "1.45"]
44--350  [Label = "1.47"]
301--362  [Label = "1.48"]
239--342  [Label = "1.49"]
51--451  [Label = "1.49"]
295--386  [Label = "1.54"]
293--389  [Label = "1.54"]
349--392  [Label = "1.55"]
226--379  [Label = "1.56"]
185--324  [Label = "1.56"]
212--305  [Label = "1.56"]
18--257  [Label = "1.58"]
243--408  [Label = "1.58"]
44--198  [Label = "1.58"]
271--432  [Label = "1.58"]
29--174  [Label = "1.59"]
428--470  [Label = "1.60"]
6--235  [Label = "1.61"]
334--463  [Label = "1.61"]
73--148  [Label = "1.63"]
77--396  [Label = "1.64"]
0--361  [Label = "1.66"]
180--191  [Label = "1.67"]
85--248  [Label = "1.68"]
302--449  [Label = "1.69"]
12--232  [Label = "1.71"]
26--117  [Label = "1.73"]
0--116  [Label = "1.74"]
332--412  [Label = "1.75"]
67--72  [Label = "1.76"]
221--495  [Label = "1.78"]
307--442  [Label = "1.79"]
114--224  [Label = "1.81"]
70--309  [Label = "1.81"]
0--337  [Label = "1.82"]
103--163  [Label = "1.83"]
15--487  [Label = "1.84"]
35--99  [Label = "1.84"]
166--190  [Label = "1.84"]
153--352  [Label = "1.85"]
365--473  [Label = "1.86"]
171--350  [Label = "1.86"]
3--271  [Label = "1.87"]
2--431  [Label = "1.87"]
254--392  [Label = "1.87"]
53--313  [Label = "1.89"]
119--201  [Label = "1.89"]
21--91  [Label = "1.89"]
32--363  [Label = "1.90"]
358--413  [Label = "1.91"]
1--70  [Label = "1.91"]
300--390  [Label = "1.92"]
296--418  [Label = "1.95"]
390--400  [Label = "1.96"]
213--294  [Label = "1.96"]
0--477  [Label = "1.98"]
70--124  [Label = "1.99"]
106--210  [Label = "1.99"]
195--346  [Label = "2.00"]
291--339  [Label = "2.00"]
483--499  [Label = "2.01"]
138--288  [Label = "2.01"]
268--309  [Label = "2.02"]
60--470  [Label = "2.03"]
27--123  [Label = "2.04"]
385--485  [Label = "2.04"]
206--307  [Label = "2.04"]
94--309  [Label = "2.05"]
397--404  [Label = "2.08"]
309--458  [Label = "2.09"]
3--177  [Label = "2.10"]
180--310  [Label = "2.10"]
309--410  [Label = "2.11"]
145--380  [Label = "2.13"]
237--266  [Label = "2.13"]
73--447  [Label = "2.13"]
8--386  [Label = "2.15"]
344--357  [Label = "2.15"]
21--158  [Label = "2.15"]
5--80  [Label = "2.16"]
51--121  [Label = "2.16"]
14--274  [Label = "2.18"]
55--427  [Label = "2.18"]
195--464  [Label = "2.19"]
388--463  [Label = "2.20"]
112--361  [Label = "2.20"]
59--221  [Label = "2.21"]
327--479  [Label = "2.21"]
86--91  [Label = "2.22"]
204--382  [Label = "2.23"]
44--45  [Label = "2.24"]
253--329  [Label = "2.24"]
31--360  [Label = "2.25"]
60--450  [Label = "2.25"]
147--162  [Label = "2.26"]
22--219  [Label = "2.26"]
78--412  [Label = "2.27"]
84--397  [Label = "2.27"]
116--123  [Label = "2.30"]
410--495  [Label = "2.30"]
88--445  [Label = "2.31"]
98--366  [Label = "2.31"]
381--418  [Label = "2.31"]
102--256  [Label = "2.32"]
47--239  [Label = "2.32"]
397--416  [Label = "2.32"]
47--473  [Label = "2.33"]
36--132  [Label = "2.33"]
98--336  [Label = "2.33"]
82--271  [Label = "2.35"]
315--384  [Label = "2.35"]
328--355  [Label = "2.36"]
1--199  [Label = "2.37"]
79--89  [Label = "2.39"]
21--144  [Label = "2.40"]
37--86  [Label = "2.42"]
401--472  [Label = "2.43"]
18--496  [Label = "2.43"]
214--340  [Label = "2.43"]
410--483  [Label = "2.43"]
6--466  [Label = "2.45"]
342--472  [Label = "2.47"]
230--267  [Label = "2.47"]
81--100  [Label = "2.48"]
135--390  [Label = "2.48"]
277--423  [Label = "2.49"]
82--312  [Label = "2.51"]
230--359  [Label = "2.52"]
41--220  [Label = "2.55"]
53--203  [Label = "2.56"]
60--210  [Label = "2.57"]
286--397  [Label = "2.57"]
349--400  [Label = "2.57"]
296--458  [Label = "2.59"]
138--398  [Label = "2.60"]
296--417  [Label = "2.60"]
137--236  [Label = "2.61"]
136--418  [Label = "2.62"]
62--261  [Label = "2.64"]
28--465  [Label = "2.68"]
196--338  [Label = "2.70"]
210--283  [Label = "2.70"]
26--239  [Label = "2.70"]
19--152  [Label = "2.71"]
99--357  [Label = "2.71"]
48--71  [Label = "2.72"]
368--398  [Label = "2.73"]
261--439  [Label = "2.74"]
286--431  [Label = "2.78"]
313--383  [Label = "2.80"]
112--355  [Label = "2.81"]
286--377  [Label = "2.82"]
235--418  [Label = "2.82"]
309--402  [Label = "2.83"]
344--429  [Label = "2.85"]
291--421  [Label = "2.87"]
295--383  [Label = "2.87"]
178--380  [Label = "2.88"]
214--328  [Label = "2.89"]
149--387  [Label = "2.92"]
318--430  [Label = "2.93"]
247--385  [Label = "2.94"]
223--266  [Label = "2.94"]
304--483  [Label = "2.99"]
385--417  [Label = "2.99"]
228--349  [Label = "3.01"]
27--493  [Label = "3.04"]
78--375  [Label = "3.05"]
95--139  [Label = "3.06"]
372--439  [Label = "3.06"]
232--269  [Label = "3.06"]
297--456  [Label = "3.06"]
257--261  [Label = "3.08"]
326--364  [Label = "3.08"]
131--202  [Label = "3.09"]
35--487  [Label = "3.09"]
134--452  [Label = "3.09"]
110--378  [Label = "3.10"]
280--462  [Label = "3.11"]
77--78  [Label = "3.13"]
214--239  [Label = "3.14"]
187--387  [Label = "3.16"]
7--444  [Label = "3.18"]
314--475  [Label = "3.18"]
309--386  [Label = "3.18"]
6--375  [Label = "3.21"]
14--243  [Label = "3.24"]
100--455  [Label = "3.24"]
30--368  [Label = "3.25"]
85--397  [Label = "3.26"]
19--319  [Label = "3.26"]
9--266  [Label = "3.26"]
260--315  [Label = "3.27"]
197--472  [Label = "3.28"]
2--67  [Label = "3.29"]
37--283  [Label = "3.29"]
29--364  [Label = "3.29"]
357--457  [Label = "3.33"]
193--301  [Label = "3.33"]
266--315  [Label = "3.33"]
418--480  [Label = "3.35"]
58--223  [Label = "3.35"]
230--488  [Label = "3.37"]
108--268  [Label = "3.37"]
49--97  [Label = "3.37"]
315--448  [Label = "3.38"]
41--58  [Label = "3.40"]
134--348  [Label = "3.40"]
306--365  [Label = "3.40"]
24--87  [Label = "3.40"]
253--448  [Label = "3.44"]
360--440  [Label = "3.45"]
168--302  [Label = "3.47"]
3--172  [Label = "3.48"]
264--371  [Label = "3.48"]
251--421  [Label = "3.50"]
113--302  [Label = "3.52"]
64--303  [Label = "3.52"]
164--223  [Label = "3.52"]
167--317  [Label = "3.53"]
131--361  [Label = "3.55"]
30--238  [Label = "3.56"]
24--97  [Label = "3.57"]
147--347  [Label = "3.58"]
131--345  [Label = "3.58"]
444--465  [Label = "3.58"]
52--204  [Label = "3.59"]
3--6  [Label = "3.59"]
385--437  [Label = "3.59"]
19--255  [Label = "3.60"]
73--151  [Label = "3.60"]
379--405  [Label = "3.61"]
153--274  [Label = "3.61"]
342--403  [Label = "3.61"]
122--335  [Label = "3.62"]
88--122  [Label = "3.62"]
190--449  [Label = "3.64"]
262--432  [Label = "3.66"]
292--378  [Label = "3.66"]
259--380  [Label = "3.66"]
60--256  [Label = "3.66"]
167--329  [Label = "3.66"]
54--196  [Label = "3.67"]
127--335  [Label = "3.67"]
225--326  [Label = "3.68"]
132--428  [Label = "3.69"]
314--445  [Label = "3.72"]
66--157  [Label = "3.72"]
97--343  [Label = "3.74"]
93--175  [Label = "3.74"]
3--327  [Label = "3.75"]
102--440  [Label = "3.75"]
99--231  [Label = "3.78"]
199--353  [Label = "3.78"]
32--109  [Label = "3.79"]
40--142  [Label = "3.79"]
99--288  [Label = "3.82"]
161--419  [Label = "3.82"]
162--274  [Label = "3.84"]
17--37  [Label = "3.85"]
284--344  [Label = "3.85"]
228--289  [Label = "3.87"]
44--368  [Label = "3.88"]
33--164  [Label = "3.88"]
104--383  [Label = "3.89"]
393--454  [Label = "3.89"]
307--425  [Label = "3.89"]
182--391  [Label = "3.89"]
35--265  [Label = "3.91"]
154--280  [Label = "3.94"]
12--395  [Label = "3.94"]
52--454  [Label = "3.96"]
69--339  [Label = "3.97"]
413--445  [Label = "3.98"]
140--394  [Label = "4.00"]
121--486  [Label = "4.00"]
157--159  [Label = "4.01"]
69--233  [Label = "4.02"]
126--148  [Label = "4.05"]
14--484  [Label = "4.06"]
238--453  [Label = "4.06"]
252--424  [Label = "4.08"]
338--421  [Label = "4.09"]
41--74  [Label = "4.09"]
40--159  [Label = "4.10"]
7--413  [Label = "4.10"]
78--181  [Label = "4.11"]
83--371  [Label = "4.12"]
135--476  [Label = "4.16"]
242--395  [Label = "4.19"]
275--472  [Label = "4.20"]
28--414  [Label = "4.22"]
178--492  [Label = "4.25"]
266--321  [Label = "4.27"]
216--230  [Label = "4.27"]
351--476  [Label = "4.27"]
56--218  [Label = "4.31"]
1--298  [Label = "4.31"]
310--411  [Label = "4.35"]
90--147  [Label = "4.38"]
299--385  [Label = "4.40"]
273--351  [Label = "4.41"]
405--416  [Label = "4.43"]
111--419  [Label = "4.43"]
26--322  [Label = "4.44"]
89--340  [Label = "4.45"]
134--233  [Label = "4.46"]
25--173  [Label = "4.47"]
324--354  [Label = "4.47"]
31--200  [Label = "4.48"]
363--407  [Label = "4.48"]
406--437  [Label = "4.49"]
215--442  [Label = "4.50"]
316--487  [Label = "4.50"]
186--394  [Label = "4.52"]
313--471  [Label = "4.52"]
299--460  [Label = "4.53"]
13--459  [Label = "4.54"]
333--401  [Label = "4.54"]
92--112  [Label = "4.55"]
46--409  [Label = "4.56"]
22--246  [Label = "4.57"]
133--277  [Label = "4.59"]
52--241  [Label = "4.59"]
263--389  [Label = "4.60"]
126--461  [Label = "4.62"]
239--391  [Label = "4.65"]
58--246  [Label = "4.66"]
101--365  [Label = "4.66"]
238--468  [Label = "4.66"]
80--497  [Label = "4.67"]
160--361  [Label = "4.71"]
290--379  [Label = "4.72"]
62--463  [Label = "4.74"]
42--309  [Label = "4.77"]
205--470  [Label = "4.79"]
151--352  [Label = "4.80"]
285--293  [Label = "4.83"]
23--192  [Label = "4.86"]
93--271  [Label = "4.87"]
188--402  [Label = "4.92"]
212--267  [Label = "4.93"]
204--278  [Label = "4.98"]
165--454  [Label = "5.00"]
61--368  [Label = "5.02"]
23--414  [Label = "5.06"]
244--257  [Label = "5.08"]
25--498  [Label = "5.08"]
310--392  [Label = "5.11"]
64--283  [Label = "5.12"]
76--77  [Label = "5.12"]
98--488  [Label = "5.15"]
308--376  [Label = "5.16"]
13--339  [Label = "5.17"]
236--269  [Label = "5.20"]
11--137  [Label = "5.20"]
246--489  [Label = "5.22"]
15--419  [Label = "5.25"]
156--215  [Label = "5.28"]
176--382  [Label = "5.30"]
213--407  [Label = "5.33"]
128--324  [Label = "5.35"]
78--325  [Label = "5.36"]
9--249  [Label = "5.38"]
449--460  [Label = "5.42"]
169--466  [Label = "5.43"]
130--450  [Label = "5.53"]
100--460  [Label = "5.54"]
225--282  [Label = "5.55"]
66--364  [Label = "5.56"]
64--146  [Label = "5.59"]
26--371  [Label = "5.60"]
285--341  [Label = "5.60"]
440--491  [Label = "5.60"]
143--476  [Label = "5.63"]
37--128  [Label = "5.72"]
250--409  [Label = "5.74"]
362--426  [Label = "5.78"]
132--208  [Label = "5.79"]
10--291  [Label = "5.80"]
369--488  [Label = "5.80"]
141--431  [Label = "5.81"]
102--114  [Label = "5.88"]
50--105  [Label = "5.88"]
120--251  [Label = "5.89"]
46--418  [Label = "5.90"]
38--110  [Label = "6.07"]
73--252  [Label = "6.07"]
16--493  [Label = "6.10"]
134--498  [Label = "6.10"]
426--453  [Label = "6.12"]
331--450  [Label = "6.14"]
145--434  [Label = "6.16"]
33--272  [Label = "6.25"]
192--209  [Label = "6.36"]
0--39  [Label = "6.37"]
75--315  [Label = "6.41"]
217--477  [Label = "6.43"]
85--96  [Label = "6.48"]
59--258  [Label = "6.53"]
20--107  [Label = "6.59"]
68--368  [Label = "6.69"]
184--430  [Label = "6.75"]
320--373  [Label = "6.76"]
104--179  [Label = "6.76"]
394--452  [Label = "6.78"]
337--482  [Label = "6.78"]
312--323  [Label = "6.88"]
210--474  [Label = "6.89"]
104--320  [Label = "6.98"]
230--478  [Label = "7.02"]
118--125  [Label = "7.18"]
89--218  [Label = "7.22"]
57--293  [Label = "7.24"]
240--423  [Label = "7.27"]
70--374  [Label = "7.35"]
8--367  [Label = "7.42"]
237--270  [Label = "7.76"]
268--467  [Label = "7.87"]
234--263  [Label = "8.03"]
279--304  [Label = "8.29"]
319--399  [Label = "8.31"]
245--426  [Label = "8.39"]
109--227  [Label = "8.40"]
71--136  [Label = "8.43"]
454--469  [Label = "8.46"]
348--433  [Label = "8.56"]
170--492  [Label = "8.79"]
229--443  [Label = "8.84"]
115--295  [Label = "8.97"]
4--83  [Label = "8.97"]
189--333  [Label = "9.12"]
200--211  [Label = "9.37"]
165--356  [Label = "9.42"]
117--125  [Label = "9.43"]
248--490  [Label = "9.54"]
183--252  [Label = "9.58"]
55--187  [Label = "9.63"]
184--436  [Label = "10.09"]
105--435  [Label = "10.30"]
87--420  [Label = "10.34"]
131--150  [Label = "10.63"]
77--155  [Label = "10.71"]
76--207  [Label = "10.98"]
292--370  [Label = "12.11"]
63--176  [Label = "13.25"]
45--446  [Label = "13.63"]
415--485  [Label = "13.83"]
330--382  [Label = "14.14"]
441--448  [Label = "14.64"]
111--311  [Label = "16.92"]
287--467  [Label = "17.62"]
129--338  [Label = "18.12"]
}
